{
  "LazyVim": { "branch": "main", "commit": "3f034d0a7f58031123300309f2efd3bb0356ee21" },
  "blink.cmp": { "branch": "main", "commit": "705f20f92bb5edffaab3598fbb484dc37a558bc9" },
  "bufferline.nvim": { "branch": "main", "commit": "655133c3b4c3e5e05ec549b9f8cc2894ac6f51b3" },
  "catppuccin": { "branch": "main", "commit": "7ab1a6ec70a664ecb95d84669efc20aaf4f4ed1b" },
  "conform.nvim": { "branch": "master", "commit": "a6f5bdb78caa305496357d17e962bbc4c0b392e2" },
  "flash.nvim": { "branch": "main", "commit": "3c942666f115e2811e959eabbdd361a025db8b63" },
  "friendly-snippets": { "branch": "main", "commit": "efff286dd74c22f731cdec26a70b46e5b203c619" },
  "fzf-lua": { "branch": "main", "commit": "9b84b53f3297d4912d7eb95b979e9b27e2e61281" },
  "gitsigns.nvim": { "branch": "main", "commit": "4c40357994f386e72be92a46f41fc1664c84c87d" },
  "grug-far.nvim": { "branch": "main", "commit": "309ecac6e6240d37c0be3c567d9f7cc95f63d255" },
  "lazy.nvim": { "branch": "main", "commit": "6c3bda4aca61a13a9c63f1c1d1b16b9d3be90d7a" },
  "lazydev.nvim": { "branch": "main", "commit": "2367a6c0a01eb9edb0464731cc0fb61ed9ab9d2c" },
  "lualine.nvim": { "branch": "master", "commit": "f4f791f67e70d378a754d02da068231d2352e5bc" },
  "mason-lspconfig.nvim": { "branch": "main", "commit": "1a31f824b9cd5bc6f342fc29e9a53b60d74af245" },
  "mason.nvim": { "branch": "main", "commit": "fc98833b6da5de5a9c5b1446ac541577059555be" },
  "mini.ai": { "branch": "main", "commit": "6e01c0e5a15554852546fac9853960780ac52ed4" },
  "mini.icons": { "branch": "main", "commit": "ec61af6e606fc89ee3b1d8f2f20166a3ca917a36" },
  "mini.pairs": { "branch": "main", "commit": "1a3e73649c0eaef2f6c48ce1e761c6f0a7c11918" },
  "neo-tree.nvim": { "branch": "main", "commit": "e6f5b5e044ba9f380e82fc942212e0679d83b6f6" },
  "noice.nvim": { "branch": "main", "commit": "0427460c2d7f673ad60eb02b35f5e9926cf67c59" },
  "nui.nvim": { "branch": "main", "commit": "53e907ffe5eedebdca1cd503b00aa8692068ca46" },
  "nvim-cmp": { "branch": "main", "commit": "5a11682453ac6b13dbf32cd403da4ee9c07ef1c3" },
  "nvim-lint": { "branch": "master", "commit": "6e9dd545a1af204c4022a8fcd99727ea41ffdcc8" },
  "nvim-lspconfig": { "branch": "master", "commit": "9dc8ecb488413d879d5d259b1ec66cf0fa7ffbe9" },
  "nvim-treesitter": { "branch": "master", "commit": "8bc635a25f581d42b0a0e5ba8870bd73244dcdea" },
  "nvim-treesitter-textobjects": { "branch": "master", "commit": "88fce4e6496950dab867a7c63a819df0ead56751" },
  "nvim-ts-autotag": { "branch": "main", "commit": "a1d526af391f6aebb25a8795cbc05351ed3620b5" },
  "persistence.nvim": { "branch": "main", "commit": "166a79a55bfa7a4db3e26fc031b4d92af71d0b51" },
  "plenary.nvim": { "branch": "master", "commit": "857c5ac632080dba10aae49dba902ce3abf91b35" },
  "snacks.nvim": { "branch": "main", "commit": "07f4b9adff7af45a7e0eb22d85a422e32ed4b1ca" },
  "todo-comments.nvim": { "branch": "main", "commit": "304a8d204ee787d2544d8bc23cd38d2f929e7cc5" },
  "tokyonight.nvim": { "branch": "main", "commit": "057ef5d260c1931f1dffd0f052c685dcd14100a3" },
  "trouble.nvim": { "branch": "main", "commit": "85bedb7eb7fa331a2ccbecb9202d8abba64d37b3" },
  "ts-comments.nvim": { "branch": "main", "commit": "1bd9d0ba1d8b336c3db50692ffd0955fe1bb9f0c" },
  "which-key.nvim": { "branch": "main", "commit": "370ec46f710e058c9c1646273e6b225acf47cbed" }
}
